-0.704 1
0.958 1
-0.325 1
2.327 1
-2.305 1
-1.066 1
-1.958 1
-0.836 1
1.473 1
2.016 1
-1.713 1
-1.598 1
-0.848 1
-0.146 1
0.488 1
2.622 1
0.699 1
-0.321 1
1.418 1
2.707 1
-0.98 1
-0.71 1
1.562 1
-0.176 1
1.577 1
1.622 1
0.694 1
-1.005 1
0.84 1
-0.472 1
-1.667 1
-2.364 1
-0.626 1
1.122 1
-1.795 1
2.196 1
1.832 1
2.177 1
1.543 1
0.867 1
0.382 1
-0.566 1
0.224 1
1.779 1
-1.096 1
-0.142 1
1.964 1
-0.471 1
0.181 1
-1.156 1
8.53 2
-1.721 2
2.136 2
-3.55 2
2.429 2
1.043 2
-3.704 2
-3.315 2
-0.745 2
-2.745 2
8.044 2
-3.513 2
7.806 2
2.763 2
-3.291 2
2.028 2
4.068 2
-2.308 2
0.444 2
-5.811 2
3.894 2
-3.166 2
0.576 2
0.716 2
-1.568 2
2.384 2
0.618 2
-3.304 2
2.619 2
-3.059 2
5.372 2
11.227 2
-13.043 2
-3.6 2
2.144 2
2.417 2
-5.125 2
1.375 2
-2.456 2
-3.595 2
2.226 2
-2.656 2
9.833 2
-0.866 2
3.676 2
-1.878 2
-4.048 2
2.487 2
4.205 2
-3.268 2
